#rname	startpos	endpos	numreads	covbases	coverage	meandepth	meanbaseq	meanmapq
chr1	1	248956422	104239003	227479866	91.3734	55.9165	35.7	37.4
chrM	1	16569	5099681	16569	100	40962.9	35.7	33.2
chr2	1	242193529	0	0	0	0	0	0
chr3	1	198295559	0	0	0	0	0	0
chr4	1	190214555	0	0	0	0	0	0
chr5	1	181538259	0	0	0	0	0	0
chr6	1	170805979	0	0	0	0	0	0
chr7	1	159345973	0	0	0	0	0	0
chr8	1	145138636	0	0	0	0	0	0
chr9	1	138394717	0	0	0	0	0	0
chr10	1	133797422	0	0	0	0	0	0
chr11	1	135086622	0	0	0	0	0	0
chr12	1	133275309	0	0	0	0	0	0
chr13	1	114364328	0	0	0	0	0	0
chr14	1	107043718	0	0	0	0	0	0
chr15	1	101991189	0	0	0	0	0	0
chr16	1	90338345	0	0	0	0	0	0
chr17	1	83257441	0	0	0	0	0	0
chr18	1	80373285	0	0	0	0	0	0
chr19	1	58617616	0	0	0	0	0	0
chr20	1	64444167	0	0	0	0	0	0
chr21	1	46709983	0	0	0	0	0	0
chr22	1	50818468	0	0	0	0	0	0
chrX	1	156040895	0	0	0	0	0	0
chrY	1	57227415	0	0	0	0	0	0
chr1_KI270706v1_random	1	175055	0	0	0	0	0	0
chr1_KI270707v1_random	1	32032	0	0	0	0	0	0
chr1_KI270708v1_random	1	127682	0	0	0	0	0	0
chr1_KI270709v1_random	1	66860	0	0	0	0	0	0
chr1_KI270710v1_random	1	40176	0	0	0	0	0	0
chr1_KI270711v1_random	1	42210	0	0	0	0	0	0
chr1_KI270712v1_random	1	176043	0	0	0	0	0	0
chr1_KI270713v1_random	1	40745	0	0	0	0	0	0
chr1_KI270714v1_random	1	41717	0	0	0	0	0	0
chr2_KI270715v1_random	1	161471	0	0	0	0	0	0
chr2_KI270716v1_random	1	153799	0	0	0	0	0	0
chr3_GL000221v1_random	1	155397	0	0	0	0	0	0
chr4_GL000008v2_random	1	209709	0	0	0	0	0	0
chr5_GL000208v1_random	1	92689	0	0	0	0	0	0
chr9_KI270717v1_random	1	40062	0	0	0	0	0	0
chr9_KI270718v1_random	1	38054	0	0	0	0	0	0
chr9_KI270719v1_random	1	176845	0	0	0	0	0	0
chr9_KI270720v1_random	1	39050	0	0	0	0	0	0
chr11_KI270721v1_random	1	100316	0	0	0	0	0	0
chr14_GL000009v2_random	1	201709	0	0	0	0	0	0
chr14_GL000225v1_random	1	211173	0	0	0	0	0	0
chr14_KI270722v1_random	1	194050	0	0	0	0	0	0
chr14_GL000194v1_random	1	191469	0	0	0	0	0	0
chr14_KI270723v1_random	1	38115	0	0	0	0	0	0
chr14_KI270724v1_random	1	39555	0	0	0	0	0	0
chr14_KI270725v1_random	1	172810	0	0	0	0	0	0
chr14_KI270726v1_random	1	43739	0	0	0	0	0	0
chr15_KI270727v1_random	1	448248	0	0	0	0	0	0
chr16_KI270728v1_random	1	1872759	0	0	0	0	0	0
chr17_GL000205v2_random	1	185591	0	0	0	0	0	0
chr17_KI270729v1_random	1	280839	0	0	0	0	0	0
chr17_KI270730v1_random	1	112551	0	0	0	0	0	0
chr22_KI270731v1_random	1	150754	0	0	0	0	0	0
chr22_KI270732v1_random	1	41543	0	0	0	0	0	0
chr22_KI270733v1_random	1	179772	0	0	0	0	0	0
chr22_KI270734v1_random	1	165050	0	0	0	0	0	0
chr22_KI270735v1_random	1	42811	0	0	0	0	0	0
chr22_KI270736v1_random	1	181920	0	0	0	0	0	0
chr22_KI270737v1_random	1	103838	0	0	0	0	0	0
chr22_KI270738v1_random	1	99375	0	0	0	0	0	0
chr22_KI270739v1_random	1	73985	0	0	0	0	0	0
chrY_KI270740v1_random	1	37240	0	0	0	0	0	0
chrUn_KI270302v1	1	2274	0	0	0	0	0	0
chrUn_KI270304v1	1	2165	0	0	0	0	0	0
chrUn_KI270303v1	1	1942	0	0	0	0	0	0
chrUn_KI270305v1	1	1472	0	0	0	0	0	0
chrUn_KI270322v1	1	21476	0	0	0	0	0	0
chrUn_KI270320v1	1	4416	0	0	0	0	0	0
chrUn_KI270310v1	1	1201	0	0	0	0	0	0
chrUn_KI270316v1	1	1444	0	0	0	0	0	0
chrUn_KI270315v1	1	2276	0	0	0	0	0	0
chrUn_KI270312v1	1	998	0	0	0	0	0	0
chrUn_KI270311v1	1	12399	0	0	0	0	0	0
chrUn_KI270317v1	1	37690	0	0	0	0	0	0
chrUn_KI270412v1	1	1179	0	0	0	0	0	0
chrUn_KI270411v1	1	2646	0	0	0	0	0	0
chrUn_KI270414v1	1	2489	0	0	0	0	0	0
chrUn_KI270419v1	1	1029	0	0	0	0	0	0
chrUn_KI270418v1	1	2145	0	0	0	0	0	0
chrUn_KI270420v1	1	2321	0	0	0	0	0	0
chrUn_KI270424v1	1	2140	0	0	0	0	0	0
chrUn_KI270417v1	1	2043	0	0	0	0	0	0
chrUn_KI270422v1	1	1445	0	0	0	0	0	0
chrUn_KI270423v1	1	981	0	0	0	0	0	0
chrUn_KI270425v1	1	1884	0	0	0	0	0	0
chrUn_KI270429v1	1	1361	0	0	0	0	0	0
chrUn_KI270442v1	1	392061	0	0	0	0	0	0
chrUn_KI270466v1	1	1233	0	0	0	0	0	0
chrUn_KI270465v1	1	1774	0	0	0	0	0	0
chrUn_KI270467v1	1	3920	0	0	0	0	0	0
chrUn_KI270435v1	1	92983	0	0	0	0	0	0
chrUn_KI270438v1	1	112505	0	0	0	0	0	0
chrUn_KI270468v1	1	4055	0	0	0	0	0	0
chrUn_KI270510v1	1	2415	0	0	0	0	0	0
chrUn_KI270509v1	1	2318	0	0	0	0	0	0
chrUn_KI270518v1	1	2186	0	0	0	0	0	0
chrUn_KI270508v1	1	1951	0	0	0	0	0	0
chrUn_KI270516v1	1	1300	0	0	0	0	0	0
chrUn_KI270512v1	1	22689	0	0	0	0	0	0
chrUn_KI270519v1	1	138126	0	0	0	0	0	0
chrUn_KI270522v1	1	5674	0	0	0	0	0	0
chrUn_KI270511v1	1	8127	0	0	0	0	0	0
chrUn_KI270515v1	1	6361	0	0	0	0	0	0
chrUn_KI270507v1	1	5353	0	0	0	0	0	0
chrUn_KI270517v1	1	3253	0	0	0	0	0	0
chrUn_KI270529v1	1	1899	0	0	0	0	0	0
chrUn_KI270528v1	1	2983	0	0	0	0	0	0
chrUn_KI270530v1	1	2168	0	0	0	0	0	0
chrUn_KI270539v1	1	993	0	0	0	0	0	0
chrUn_KI270538v1	1	91309	0	0	0	0	0	0
chrUn_KI270544v1	1	1202	0	0	0	0	0	0
chrUn_KI270548v1	1	1599	0	0	0	0	0	0
chrUn_KI270583v1	1	1400	0	0	0	0	0	0
chrUn_KI270587v1	1	2969	0	0	0	0	0	0
chrUn_KI270580v1	1	1553	0	0	0	0	0	0
chrUn_KI270581v1	1	7046	0	0	0	0	0	0
chrUn_KI270579v1	1	31033	0	0	0	0	0	0
chrUn_KI270589v1	1	44474	0	0	0	0	0	0
chrUn_KI270590v1	1	4685	0	0	0	0	0	0
chrUn_KI270584v1	1	4513	0	0	0	0	0	0
chrUn_KI270582v1	1	6504	0	0	0	0	0	0
chrUn_KI270588v1	1	6158	0	0	0	0	0	0
chrUn_KI270593v1	1	3041	0	0	0	0	0	0
chrUn_KI270591v1	1	5796	0	0	0	0	0	0
chrUn_KI270330v1	1	1652	0	0	0	0	0	0
chrUn_KI270329v1	1	1040	0	0	0	0	0	0
chrUn_KI270334v1	1	1368	0	0	0	0	0	0
chrUn_KI270333v1	1	2699	0	0	0	0	0	0
chrUn_KI270335v1	1	1048	0	0	0	0	0	0
chrUn_KI270338v1	1	1428	0	0	0	0	0	0
chrUn_KI270340v1	1	1428	0	0	0	0	0	0
chrUn_KI270336v1	1	1026	0	0	0	0	0	0
chrUn_KI270337v1	1	1121	0	0	0	0	0	0
chrUn_KI270363v1	1	1803	0	0	0	0	0	0
chrUn_KI270364v1	1	2855	0	0	0	0	0	0
chrUn_KI270362v1	1	3530	0	0	0	0	0	0
chrUn_KI270366v1	1	8320	0	0	0	0	0	0
chrUn_KI270378v1	1	1048	0	0	0	0	0	0
chrUn_KI270379v1	1	1045	0	0	0	0	0	0
chrUn_KI270389v1	1	1298	0	0	0	0	0	0
chrUn_KI270390v1	1	2387	0	0	0	0	0	0
chrUn_KI270387v1	1	1537	0	0	0	0	0	0
chrUn_KI270395v1	1	1143	0	0	0	0	0	0
chrUn_KI270396v1	1	1880	0	0	0	0	0	0
chrUn_KI270388v1	1	1216	0	0	0	0	0	0
chrUn_KI270394v1	1	970	0	0	0	0	0	0
chrUn_KI270386v1	1	1788	0	0	0	0	0	0
chrUn_KI270391v1	1	1484	0	0	0	0	0	0
chrUn_KI270383v1	1	1750	0	0	0	0	0	0
chrUn_KI270393v1	1	1308	0	0	0	0	0	0
chrUn_KI270384v1	1	1658	0	0	0	0	0	0
chrUn_KI270392v1	1	971	0	0	0	0	0	0
chrUn_KI270381v1	1	1930	0	0	0	0	0	0
chrUn_KI270385v1	1	990	0	0	0	0	0	0
chrUn_KI270382v1	1	4215	0	0	0	0	0	0
chrUn_KI270376v1	1	1136	0	0	0	0	0	0
chrUn_KI270374v1	1	2656	0	0	0	0	0	0
chrUn_KI270372v1	1	1650	0	0	0	0	0	0
chrUn_KI270373v1	1	1451	0	0	0	0	0	0
chrUn_KI270375v1	1	2378	0	0	0	0	0	0
chrUn_KI270371v1	1	2805	0	0	0	0	0	0
chrUn_KI270448v1	1	7992	0	0	0	0	0	0
chrUn_KI270521v1	1	7642	0	0	0	0	0	0
chrUn_GL000195v1	1	182896	0	0	0	0	0	0
chrUn_GL000219v1	1	179198	0	0	0	0	0	0
chrUn_GL000220v1	1	161802	0	0	0	0	0	0
chrUn_GL000224v1	1	179693	0	0	0	0	0	0
chrUn_KI270741v1	1	157432	0	0	0	0	0	0
chrUn_GL000226v1	1	15008	0	0	0	0	0	0
chrUn_GL000213v1	1	164239	0	0	0	0	0	0
chrUn_KI270743v1	1	210658	0	0	0	0	0	0
chrUn_KI270744v1	1	168472	0	0	0	0	0	0
chrUn_KI270745v1	1	41891	0	0	0	0	0	0
chrUn_KI270746v1	1	66486	0	0	0	0	0	0
chrUn_KI270747v1	1	198735	0	0	0	0	0	0
chrUn_KI270748v1	1	93321	0	0	0	0	0	0
chrUn_KI270749v1	1	158759	0	0	0	0	0	0
chrUn_KI270750v1	1	148850	0	0	0	0	0	0
chrUn_KI270751v1	1	150742	0	0	0	0	0	0
chrUn_KI270752v1	1	27745	0	0	0	0	0	0
chrUn_KI270753v1	1	62944	0	0	0	0	0	0
chrUn_KI270754v1	1	40191	0	0	0	0	0	0
chrUn_KI270755v1	1	36723	0	0	0	0	0	0
chrUn_KI270756v1	1	79590	0	0	0	0	0	0
chrUn_KI270757v1	1	71251	0	0	0	0	0	0
chrUn_GL000214v1	1	137718	0	0	0	0	0	0
chrUn_KI270742v1	1	186739	0	0	0	0	0	0
chrUn_GL000216v2	1	176608	0	0	0	0	0	0
chrUn_GL000218v1	1	161147	0	0	0	0	0	0
chrEBV	1	171823	0	0	0	0	0	0
chrL	1	48502	0	0	0	0	0	0
